%YAML 1.1
%TAG !u! tag:unity3d.com,2011:
--- !u!1045 &1
EditorBuildSettings:
  m_ObjectHideFlags: 0
  serializedVersion: 2
  m_Scenes:
  - enabled: 1
    path: Assets/Scenes/Title.unity
    guid: 3aa5f5d15a795da4485a8ba59fb08581
  - enabled: 1
    path: Assets/Scenes/GameScene.unity
    guid: a965bd5e993c657419c552e6699c9934
  - enabled: 1
    path: Assets/Scenes/GameOverScene.unity
    guid: 762d8370402c27545a43a543386bf97e
  - enabled: 1
    path: Assets/Scenes/ClearScene.unity
    guid: a15e02baf606ade4ea3c61c35e12fd50
  m_configObjects: {}
